{
    "Questions":
    [
        {
        "id": 0,
        "name_ru": "Правда ли, что выше головы не прыгнешь?",
        "name_eng": "Правда ли, что выше головы не прыгнешь?",
        "name_kz": "Правда ли, что выше головы не прыгнешь?",
        "right_answer_id": 2,
        "options":[
            {
                "id":0,
                "name_ru": "Опция 1",
                "name_eng": "Опция 1",
                "name_kz": "Опция 1"
            },
            {
                "id":1,
                "name_ru": "Опция 2",
                "name_eng": "Опция 2",
                "name_kz": "Опция 2"
            },
            {
                "id":2,
                "name_ru": "Опция 3",
                "name_eng": "Опция 3",
                "name_kz": "Опция 3"
            },
            {
                "id":3,
                "name_ru": "Опция 4",
                "name_eng": "Опция 4",
                "name_kz": "Опция 4"
            },
            {
                "id":4,
                "name_ru": "Опция 5",
                "name_eng": "Опция 5",
                "name_kz": "Опция 5"
            }
        ]
        },
        {
            "id": 1,
            "name_ru": "Правда ли, что выше головы не прыгнешь?",
            "name_eng": "Правда ли, что выше головы не прыгнешь?",
            "name_kz": "Правда ли, что выше головы не прыгнешь?",
            "right_answer_id": 2,
            "options":[
                {
                    "id":0,
                    "name_ru": "Опция 1",
                    "name_eng": "Опция 1",
                    "name_kz": "Опция 1"
                },
                {
                    "id":1,
                    "name_ru": "Опция 2",
                    "name_eng": "Опция 2",
                    "name_kz": "Опция 2"
                },
                {
                    "id":2,
                    "name_ru": "Опция 3",
                    "name_eng": "Опция 3",
                    "name_kz": "Опция 3"
                }
            ]
        }
    ]
}